[
  {
    "id": 293,
    "code": "USD",
    "name": "Dollar",
    "to_usd": 0E-18,
    "created_at": "2018-10-12 17:15:39.890000",
    "updated_at": "2018-10-12 17:15:39.890000",
    "to_btc": 0E-18,
    "to_rub": 0E-18
  },
  {
    "id": 294,
    "code": "RUB",
    "name": "Ruble",
    "to_usd": 0E-18,
    "created_at": "2018-10-12 17:15:39.890000",
    "updated_at": "2018-10-12 17:15:39.890000",
    "to_btc": 0E-18,
    "to_rub": 0E-18
  },
  {
    "id": 1,
    "code": "BTC",
    "name": "Bitcoin",
    "to_usd": 6414.020332250000000000,
    "created_at": "2018-09-16 15:26:43.210000",
    "updated_at": "2018-11-12 15:00:00.702000",
    "to_btc": 1.000000000000000000,
    "to_rub": 433610.223531000000000000
  }
]
